Module 6 Intro to Tidyverse | ESOC 2014 Introduction to Data Science
…
The pipe allows us to apply multiple functions to the same object.

Let’s start by selecting one column in our data.

country_vaccinations %>% 
  select(vaccines)

## # A tibble: 1,816 x 1
##    vaccines 
##    <chr>    
##  1 Sputnik V
##  2 Sputnik V
##  3 Sputnik V
##  4 Sputnik V
##  5 Sputnik V
##  6 Sputnik V
##  7 Sputnik V
##  8 Sputnik V
##  9 Sputnik V
## 10 Sputnik V
## # … with 1,806 more rows
…
How can we answer our question with this data?

What function (e.g., sum(), max(), mean()) do we use to answer our question? With what variables/columns?

Complete the code below.

country_vaccinations %>% 
  group_by(country) %>%
  summarise(total_days = n(),
            total_per_hundred = ____(____), na.rm = TRUE)

Example of output that you might want to get to answer our question:

## # A tibble: 64 x 3
##    country   total_days total_per_hundred
##    <chr>          <int>             <dbl>
##  1 Argentina         33              0.81
##  2 Austria           21              2.19
##  3 Bahrain           39             10.0 
##  4 Belgium           33              2.45
##  5 Bermuda           14              4.71
##  6 Brazil            15              0.94
##  7 Bulgaria          33              0.59
##  8 Canada            22              2.48
##  9 Chile             38              0.35
## 10 China             44              1.58
## # … with 54 more rows
…
